(kicad_sch (version 20230121) (generator eeschema)

  (uuid 6a79675d-9085-4aea-b8c4-79780d4b41fb)

  (paper "A4")

  (lib_symbols
    (symbol "74xGxx:74AUC2G04" (in_bom yes) (on_board yes)
      (property "Reference" "U" (at -2.54 3.81 0)
        (effects (font (size 1.27 1.27)))
      )
      (property "Value" "74AUC2G04" (at 0 -3.81 0)
        (effects (font (size 1.27 1.27)))
      )
      (property "Footprint" "" (at 0 0 0)
        (effects (font (size 1.27 1.27)) hide)
      )
      (property "Datasheet" "http://www.ti.com/lit/sg/scyt129e/scyt129e.pdf" (at 0 0 0)
        (effects (font (size 1.27 1.27)) hide)
      )
      (property "ki_keywords" "Dual Gate NOT LVC CMOS" (at 0 0 0)
        (effects (font (size 1.27 1.27)) hide)
      )
      (property "ki_description" "Dual NOT Gate, Low-Voltage CMOS" (at 0 0 0)
        (effects (font (size 1.27 1.27)) hide)
      )
      (property "ki_fp_filters" "SG-* SOT*" (at 0 0 0)
        (effects (font (size 1.27 1.27)) hide)
      )
      (symbol "74AUC2G04_1_1"
        (polyline
          (pts
            (xy -7.62 6.35)
            (xy -7.62 -6.35)
            (xy 5.08 0)
            (xy -7.62 6.35)
          )
          (stroke (width 0.254) (type default))
          (fill (type background))
        )
        (pin input line (at -15.24 0 0) (length 7.62)
          (name "~" (effects (font (size 1.27 1.27))))
          (number "1" (effects (font (size 1.27 1.27))))
        )
        (pin output inverted (at 12.7 0 180) (length 7.62)
          (name "~" (effects (font (size 1.27 1.27))))
          (number "6" (effects (font (size 1.27 1.27))))
        )
      )
      (symbol "74AUC2G04_2_1"
        (polyline
          (pts
            (xy -7.62 6.35)
            (xy -7.62 -6.35)
            (xy 5.08 0)
            (xy -7.62 6.35)
          )
          (stroke (width 0.254) (type default))
          (fill (type background))
        )
        (pin input line (at -15.24 0 0) (length 7.62)
          (name "~" (effects (font (size 1.27 1.27))))
          (number "3" (effects (font (size 1.27 1.27))))
        )
        (pin output inverted (at 12.7 0 180) (length 7.62)
          (name "~" (effects (font (size 1.27 1.27))))
          (number "4" (effects (font (size 1.27 1.27))))
        )
      )
      (symbol "74AUC2G04_3_0"
        (rectangle (start -5.08 -5.08) (end 5.08 5.08)
          (stroke (width 0.254) (type default))
          (fill (type background))
        )
      )
      (symbol "74AUC2G04_3_1"
        (pin power_in line (at 0 -10.16 90) (length 5.08)
          (name "GND" (effects (font (size 1.27 1.27))))
          (number "2" (effects (font (size 1.27 1.27))))
        )
        (pin power_in line (at 0 10.16 270) (length 5.08)
          (name "VCC" (effects (font (size 1.27 1.27))))
          (number "5" (effects (font (size 1.27 1.27))))
        )
      )
    )
    (symbol "74xx:7400" (pin_names (offset 1.016)) (in_bom yes) (on_board yes)
      (property "Reference" "U" (at 0 1.27 0)
        (effects (font (size 1.27 1.27)))
      )
      (property "Value" "7400" (at 0 -1.27 0)
        (effects (font (size 1.27 1.27)))
      )
      (property "Footprint" "" (at 0 0 0)
        (effects (font (size 1.27 1.27)) hide)
      )
      (property "Datasheet" "http://www.ti.com/lit/gpn/sn7400" (at 0 0 0)
        (effects (font (size 1.27 1.27)) hide)
      )
      (property "ki_locked" "" (at 0 0 0)
        (effects (font (size 1.27 1.27)))
      )
      (property "ki_keywords" "TTL nand 2-input" (at 0 0 0)
        (effects (font (size 1.27 1.27)) hide)
      )
      (property "ki_description" "quad 2-input NAND gate" (at 0 0 0)
        (effects (font (size 1.27 1.27)) hide)
      )
      (property "ki_fp_filters" "DIP*W7.62mm* SO14*" (at 0 0 0)
        (effects (font (size 1.27 1.27)) hide)
      )
      (symbol "7400_1_1"
        (arc (start 0 -3.81) (mid 3.7934 0) (end 0 3.81)
          (stroke (width 0.254) (type default))
          (fill (type background))
        )
        (polyline
          (pts
            (xy 0 3.81)
            (xy -3.81 3.81)
            (xy -3.81 -3.81)
            (xy 0 -3.81)
          )
          (stroke (width 0.254) (type default))
          (fill (type background))
        )
        (pin input line (at -7.62 2.54 0) (length 3.81)
          (name "~" (effects (font (size 1.27 1.27))))
          (number "1" (effects (font (size 1.27 1.27))))
        )
        (pin input line (at -7.62 -2.54 0) (length 3.81)
          (name "~" (effects (font (size 1.27 1.27))))
          (number "2" (effects (font (size 1.27 1.27))))
        )
        (pin output inverted (at 7.62 0 180) (length 3.81)
          (name "~" (effects (font (size 1.27 1.27))))
          (number "3" (effects (font (size 1.27 1.27))))
        )
      )
      (symbol "7400_1_2"
        (arc (start -3.81 -3.81) (mid -2.589 0) (end -3.81 3.81)
          (stroke (width 0.254) (type default))
          (fill (type none))
        )
        (arc (start -0.6096 -3.81) (mid 2.1842 -2.5851) (end 3.81 0)
          (stroke (width 0.254) (type default))
          (fill (type background))
        )
        (polyline
          (pts
            (xy -3.81 -3.81)
            (xy -0.635 -3.81)
          )
          (stroke (width 0.254) (type default))
          (fill (type background))
        )
        (polyline
          (pts
            (xy -3.81 3.81)
            (xy -0.635 3.81)
          )
          (stroke (width 0.254) (type default))
          (fill (type background))
        )
        (polyline
          (pts
            (xy -0.635 3.81)
            (xy -3.81 3.81)
            (xy -3.81 3.81)
            (xy -3.556 3.4036)
            (xy -3.0226 2.2606)
            (xy -2.6924 1.0414)
            (xy -2.6162 -0.254)
            (xy -2.7686 -1.4986)
            (xy -3.175 -2.7178)
            (xy -3.81 -3.81)
            (xy -3.81 -3.81)
            (xy -0.635 -3.81)
          )
          (stroke (width -25.4) (type default))
          (fill (type background))
        )
        (arc (start 3.81 0) (mid 2.1915 2.5936) (end -0.6096 3.81)
          (stroke (width 0.254) (type default))
          (fill (type background))
        )
        (pin input inverted (at -7.62 2.54 0) (length 4.318)
          (name "~" (effects (font (size 1.27 1.27))))
          (number "1" (effects (font (size 1.27 1.27))))
        )
        (pin input inverted (at -7.62 -2.54 0) (length 4.318)
          (name "~" (effects (font (size 1.27 1.27))))
          (number "2" (effects (font (size 1.27 1.27))))
        )
        (pin output line (at 7.62 0 180) (length 3.81)
          (name "~" (effects (font (size 1.27 1.27))))
          (number "3" (effects (font (size 1.27 1.27))))
        )
      )
      (symbol "7400_2_1"
        (arc (start 0 -3.81) (mid 3.7934 0) (end 0 3.81)
          (stroke (width 0.254) (type default))
          (fill (type background))
        )
        (polyline
          (pts
            (xy 0 3.81)
            (xy -3.81 3.81)
            (xy -3.81 -3.81)
            (xy 0 -3.81)
          )
          (stroke (width 0.254) (type default))
          (fill (type background))
        )
        (pin input line (at -7.62 2.54 0) (length 3.81)
          (name "~" (effects (font (size 1.27 1.27))))
          (number "4" (effects (font (size 1.27 1.27))))
        )
        (pin input line (at -7.62 -2.54 0) (length 3.81)
          (name "~" (effects (font (size 1.27 1.27))))
          (number "5" (effects (font (size 1.27 1.27))))
        )
        (pin output inverted (at 7.62 0 180) (length 3.81)
          (name "~" (effects (font (size 1.27 1.27))))
          (number "6" (effects (font (size 1.27 1.27))))
        )
      )
      (symbol "7400_2_2"
        (arc (start -3.81 -3.81) (mid -2.589 0) (end -3.81 3.81)
          (stroke (width 0.254) (type default))
          (fill (type none))
        )
        (arc (start -0.6096 -3.81) (mid 2.1842 -2.5851) (end 3.81 0)
          (stroke (width 0.254) (type default))
          (fill (type background))
        )
        (polyline
          (pts
            (xy -3.81 -3.81)
            (xy -0.635 -3.81)
          )
          (stroke (width 0.254) (type default))
          (fill (type background))
        )
        (polyline
          (pts
            (xy -3.81 3.81)
            (xy -0.635 3.81)
          )
          (stroke (width 0.254) (type default))
          (fill (type background))
        )
        (polyline
          (pts
            (xy -0.635 3.81)
            (xy -3.81 3.81)
            (xy -3.81 3.81)
            (xy -3.556 3.4036)
            (xy -3.0226 2.2606)
            (xy -2.6924 1.0414)
            (xy -2.6162 -0.254)
            (xy -2.7686 -1.4986)
            (xy -3.175 -2.7178)
            (xy -3.81 -3.81)
            (xy -3.81 -3.81)
            (xy -0.635 -3.81)
          )
          (stroke (width -25.4) (type default))
          (fill (type background))
        )
        (arc (start 3.81 0) (mid 2.1915 2.5936) (end -0.6096 3.81)
          (stroke (width 0.254) (type default))
          (fill (type background))
        )
        (pin input inverted (at -7.62 2.54 0) (length 4.318)
          (name "~" (effects (font (size 1.27 1.27))))
          (number "4" (effects (font (size 1.27 1.27))))
        )
        (pin input inverted (at -7.62 -2.54 0) (length 4.318)
          (name "~" (effects (font (size 1.27 1.27))))
          (number "5" (effects (font (size 1.27 1.27))))
        )
        (pin output line (at 7.62 0 180) (length 3.81)
          (name "~" (effects (font (size 1.27 1.27))))
          (number "6" (effects (font (size 1.27 1.27))))
        )
      )
      (symbol "7400_3_1"
        (arc (start 0 -3.81) (mid 3.7934 0) (end 0 3.81)
          (stroke (width 0.254) (type default))
          (fill (type background))
        )
        (polyline
          (pts
            (xy 0 3.81)
            (xy -3.81 3.81)
            (xy -3.81 -3.81)
            (xy 0 -3.81)
          )
          (stroke (width 0.254) (type default))
          (fill (type background))
        )
        (pin input line (at -7.62 -2.54 0) (length 3.81)
          (name "~" (effects (font (size 1.27 1.27))))
          (number "10" (effects (font (size 1.27 1.27))))
        )
        (pin output inverted (at 7.62 0 180) (length 3.81)
          (name "~" (effects (font (size 1.27 1.27))))
          (number "8" (effects (font (size 1.27 1.27))))
        )
        (pin input line (at -7.62 2.54 0) (length 3.81)
          (name "~" (effects (font (size 1.27 1.27))))
          (number "9" (effects (font (size 1.27 1.27))))
        )
      )
      (symbol "7400_3_2"
        (arc (start -3.81 -3.81) (mid -2.589 0) (end -3.81 3.81)
          (stroke (width 0.254) (type default))
          (fill (type none))
        )
        (arc (start -0.6096 -3.81) (mid 2.1842 -2.5851) (end 3.81 0)
          (stroke (width 0.254) (type default))
          (fill (type background))
        )
        (polyline
          (pts
            (xy -3.81 -3.81)
            (xy -0.635 -3.81)
          )
          (stroke (width 0.254) (type default))
          (fill (type background))
        )
        (polyline
          (pts
            (xy -3.81 3.81)
            (xy -0.635 3.81)
          )
          (stroke (width 0.254) (type default))
          (fill (type background))
        )
        (polyline
          (pts
            (xy -0.635 3.81)
            (xy -3.81 3.81)
            (xy -3.81 3.81)
            (xy -3.556 3.4036)
            (xy -3.0226 2.2606)
            (xy -2.6924 1.0414)
            (xy -2.6162 -0.254)
            (xy -2.7686 -1.4986)
            (xy -3.175 -2.7178)
            (xy -3.81 -3.81)
            (xy -3.81 -3.81)
            (xy -0.635 -3.81)
          )
          (stroke (width -25.4) (type default))
          (fill (type background))
        )
        (arc (start 3.81 0) (mid 2.1915 2.5936) (end -0.6096 3.81)
          (stroke (width 0.254) (type default))
          (fill (type background))
        )
        (pin input inverted (at -7.62 -2.54 0) (length 4.318)
          (name "~" (effects (font (size 1.27 1.27))))
          (number "10" (effects (font (size 1.27 1.27))))
        )
        (pin output line (at 7.62 0 180) (length 3.81)
          (name "~" (effects (font (size 1.27 1.27))))
          (number "8" (effects (font (size 1.27 1.27))))
        )
        (pin input inverted (at -7.62 2.54 0) (length 4.318)
          (name "~" (effects (font (size 1.27 1.27))))
          (number "9" (effects (font (size 1.27 1.27))))
        )
      )
      (symbol "7400_4_1"
        (arc (start 0 -3.81) (mid 3.7934 0) (end 0 3.81)
          (stroke (width 0.254) (type default))
          (fill (type background))
        )
        (polyline
          (pts
            (xy 0 3.81)
            (xy -3.81 3.81)
            (xy -3.81 -3.81)
            (xy 0 -3.81)
          )
          (stroke (width 0.254) (type default))
          (fill (type background))
        )
        (pin output inverted (at 7.62 0 180) (length 3.81)
          (name "~" (effects (font (size 1.27 1.27))))
          (number "11" (effects (font (size 1.27 1.27))))
        )
        (pin input line (at -7.62 2.54 0) (length 3.81)
          (name "~" (effects (font (size 1.27 1.27))))
          (number "12" (effects (font (size 1.27 1.27))))
        )
        (pin input line (at -7.62 -2.54 0) (length 3.81)
          (name "~" (effects (font (size 1.27 1.27))))
          (number "13" (effects (font (size 1.27 1.27))))
        )
      )
      (symbol "7400_4_2"
        (arc (start -3.81 -3.81) (mid -2.589 0) (end -3.81 3.81)
          (stroke (width 0.254) (type default))
          (fill (type none))
        )
        (arc (start -0.6096 -3.81) (mid 2.1842 -2.5851) (end 3.81 0)
          (stroke (width 0.254) (type default))
          (fill (type background))
        )
        (polyline
          (pts
            (xy -3.81 -3.81)
            (xy -0.635 -3.81)
          )
          (stroke (width 0.254) (type default))
          (fill (type background))
        )
        (polyline
          (pts
            (xy -3.81 3.81)
            (xy -0.635 3.81)
          )
          (stroke (width 0.254) (type default))
          (fill (type background))
        )
        (polyline
          (pts
            (xy -0.635 3.81)
            (xy -3.81 3.81)
            (xy -3.81 3.81)
            (xy -3.556 3.4036)
            (xy -3.0226 2.2606)
            (xy -2.6924 1.0414)
            (xy -2.6162 -0.254)
            (xy -2.7686 -1.4986)
            (xy -3.175 -2.7178)
            (xy -3.81 -3.81)
            (xy -3.81 -3.81)
            (xy -0.635 -3.81)
          )
          (stroke (width -25.4) (type default))
          (fill (type background))
        )
        (arc (start 3.81 0) (mid 2.1915 2.5936) (end -0.6096 3.81)
          (stroke (width 0.254) (type default))
          (fill (type background))
        )
        (pin output line (at 7.62 0 180) (length 3.81)
          (name "~" (effects (font (size 1.27 1.27))))
          (number "11" (effects (font (size 1.27 1.27))))
        )
        (pin input inverted (at -7.62 2.54 0) (length 4.318)
          (name "~" (effects (font (size 1.27 1.27))))
          (number "12" (effects (font (size 1.27 1.27))))
        )
        (pin input inverted (at -7.62 -2.54 0) (length 4.318)
          (name "~" (effects (font (size 1.27 1.27))))
          (number "13" (effects (font (size 1.27 1.27))))
        )
      )
      (symbol "7400_5_0"
        (pin power_in line (at 0 12.7 270) (length 5.08)
          (name "VCC" (effects (font (size 1.27 1.27))))
          (number "14" (effects (font (size 1.27 1.27))))
        )
        (pin power_in line (at 0 -12.7 90) (length 5.08)
          (name "GND" (effects (font (size 1.27 1.27))))
          (number "7" (effects (font (size 1.27 1.27))))
        )
      )
      (symbol "7400_5_1"
        (rectangle (start -5.08 7.62) (end 5.08 -7.62)
          (stroke (width 0.254) (type default))
          (fill (type background))
        )
      )
    )
    (symbol "Device:LED" (pin_numbers hide) (pin_names (offset 1.016) hide) (in_bom yes) (on_board yes)
      (property "Reference" "D" (at 0 2.54 0)
        (effects (font (size 1.27 1.27)))
      )
      (property "Value" "LED" (at 0 -2.54 0)
        (effects (font (size 1.27 1.27)))
      )
      (property "Footprint" "" (at 0 0 0)
        (effects (font (size 1.27 1.27)) hide)
      )
      (property "Datasheet" "~" (at 0 0 0)
        (effects (font (size 1.27 1.27)) hide)
      )
      (property "ki_keywords" "LED diode" (at 0 0 0)
        (effects (font (size 1.27 1.27)) hide)
      )
      (property "ki_description" "Light emitting diode" (at 0 0 0)
        (effects (font (size 1.27 1.27)) hide)
      )
      (property "ki_fp_filters" "LED* LED_SMD:* LED_THT:*" (at 0 0 0)
        (effects (font (size 1.27 1.27)) hide)
      )
      (symbol "LED_0_1"
        (polyline
          (pts
            (xy -1.27 -1.27)
            (xy -1.27 1.27)
          )
          (stroke (width 0.254) (type default))
          (fill (type none))
        )
        (polyline
          (pts
            (xy -1.27 0)
            (xy 1.27 0)
          )
          (stroke (width 0) (type default))
          (fill (type none))
        )
        (polyline
          (pts
            (xy 1.27 -1.27)
            (xy 1.27 1.27)
            (xy -1.27 0)
            (xy 1.27 -1.27)
          )
          (stroke (width 0.254) (type default))
          (fill (type none))
        )
        (polyline
          (pts
            (xy -3.048 -0.762)
            (xy -4.572 -2.286)
            (xy -3.81 -2.286)
            (xy -4.572 -2.286)
            (xy -4.572 -1.524)
          )
          (stroke (width 0) (type default))
          (fill (type none))
        )
        (polyline
          (pts
            (xy -1.778 -0.762)
            (xy -3.302 -2.286)
            (xy -2.54 -2.286)
            (xy -3.302 -2.286)
            (xy -3.302 -1.524)
          )
          (stroke (width 0) (type default))
          (fill (type none))
        )
      )
      (symbol "LED_1_1"
        (pin passive line (at -3.81 0 0) (length 2.54)
          (name "K" (effects (font (size 1.27 1.27))))
          (number "1" (effects (font (size 1.27 1.27))))
        )
        (pin passive line (at 3.81 0 180) (length 2.54)
          (name "A" (effects (font (size 1.27 1.27))))
          (number "2" (effects (font (size 1.27 1.27))))
        )
      )
    )
    (symbol "Device:R" (pin_numbers hide) (pin_names (offset 0)) (in_bom yes) (on_board yes)
      (property "Reference" "R" (at 2.032 0 90)
        (effects (font (size 1.27 1.27)))
      )
      (property "Value" "R" (at 0 0 90)
        (effects (font (size 1.27 1.27)))
      )
      (property "Footprint" "" (at -1.778 0 90)
        (effects (font (size 1.27 1.27)) hide)
      )
      (property "Datasheet" "~" (at 0 0 0)
        (effects (font (size 1.27 1.27)) hide)
      )
      (property "ki_keywords" "R res resistor" (at 0 0 0)
        (effects (font (size 1.27 1.27)) hide)
      )
      (property "ki_description" "Resistor" (at 0 0 0)
        (effects (font (size 1.27 1.27)) hide)
      )
      (property "ki_fp_filters" "R_*" (at 0 0 0)
        (effects (font (size 1.27 1.27)) hide)
      )
      (symbol "R_0_1"
        (rectangle (start -1.016 -2.54) (end 1.016 2.54)
          (stroke (width 0.254) (type default))
          (fill (type none))
        )
      )
      (symbol "R_1_1"
        (pin passive line (at 0 3.81 270) (length 1.27)
          (name "~" (effects (font (size 1.27 1.27))))
          (number "1" (effects (font (size 1.27 1.27))))
        )
        (pin passive line (at 0 -3.81 90) (length 1.27)
          (name "~" (effects (font (size 1.27 1.27))))
          (number "2" (effects (font (size 1.27 1.27))))
        )
      )
    )
    (symbol "LED_1" (pin_numbers hide) (pin_names (offset 1.016) hide) (in_bom yes) (on_board yes)
      (property "Reference" "D3" (at 1.5875 5.08 0)
        (effects (font (size 1.27 1.27)))
      )
      (property "Value" "LED" (at 1.5875 2.54 0)
        (effects (font (size 1.27 1.27)))
      )
      (property "Footprint" "" (at 0 0 0)
        (effects (font (size 1.27 1.27)) hide)
      )
      (property "Datasheet" "~" (at 0 0 0)
        (effects (font (size 1.27 1.27)) hide)
      )
      (property "ki_keywords" "LED diode" (at 0 0 0)
        (effects (font (size 1.27 1.27)) hide)
      )
      (property "ki_description" "Light emitting diode" (at 0 0 0)
        (effects (font (size 1.27 1.27)) hide)
      )
      (property "ki_fp_filters" "LED* LED_SMD:* LED_THT:*" (at 0 0 0)
        (effects (font (size 1.27 1.27)) hide)
      )
      (symbol "LED_1_0_1"
        (polyline
          (pts
            (xy -1.27 -1.27)
            (xy -1.27 1.27)
          )
          (stroke (width 0.254) (type default))
          (fill (type none))
        )
        (polyline
          (pts
            (xy -1.27 0)
            (xy 1.27 0)
          )
          (stroke (width 0) (type default))
          (fill (type none))
        )
        (polyline
          (pts
            (xy 1.27 -1.27)
            (xy 1.27 1.27)
            (xy -1.27 0)
            (xy 1.27 -1.27)
          )
          (stroke (width 0.254) (type default) (color 196 17 17 1))
          (fill (type none))
        )
        (polyline
          (pts
            (xy -3.048 -0.762)
            (xy -4.572 -2.286)
            (xy -3.81 -2.286)
            (xy -4.572 -2.286)
            (xy -4.572 -1.524)
          )
          (stroke (width 0) (type default))
          (fill (type none))
        )
        (polyline
          (pts
            (xy -1.778 -0.762)
            (xy -3.302 -2.286)
            (xy -2.54 -2.286)
            (xy -3.302 -2.286)
            (xy -3.302 -1.524)
          )
          (stroke (width 0) (type default))
          (fill (type none))
        )
      )
      (symbol "LED_1_1_1"
        (pin passive line (at -3.81 0 0) (length 2.54)
          (name "K" (effects (font (size 1.27 1.27))))
          (number "1" (effects (font (size 1.27 1.27))))
        )
        (pin passive line (at 3.81 0 180) (length 2.54)
          (name "A" (effects (font (size 1.27 1.27))))
          (number "2" (effects (font (size 1.27 1.27))))
        )
      )
    )
    (symbol "R_1" (pin_numbers hide) (pin_names (offset 0)) (in_bom yes) (on_board yes)
      (property "Reference" "R2" (at 2.54 0.635 0)
        (effects (font (size 1.27 1.27)) (justify left))
      )
      (property "Value" "R" (at 12.7 -3.81 0)
        (effects (font (size 1.27 1.27)) (justify left))
      )
      (property "Footprint" "" (at -1.778 0 90)
        (effects (font (size 1.27 1.27)) hide)
      )
      (property "Datasheet" "R" (at 0 0 0)
        (effects (font (size 1.27 1.27)) hide)
      )
      (property "ki_keywords" "R res resistor" (at 0 0 0)
        (effects (font (size 1.27 1.27)) hide)
      )
      (property "ki_description" "Resistor" (at 0 0 0)
        (effects (font (size 1.27 1.27)) hide)
      )
      (property "ki_fp_filters" "R_*" (at 0 0 0)
        (effects (font (size 1.27 1.27)) hide)
      )
      (symbol "R_1_0_1"
        (rectangle (start -1.016 2.54) (end 1.016 -2.54)
          (stroke (width 0.254) (type default))
          (fill (type none))
        )
      )
      (symbol "R_1_1_1"
        (pin passive line (at 0 3.81 270) (length 1.27)
          (name "~" (effects (font (size 1.27 1.27))))
          (number "1" (effects (font (size 1.27 1.27))))
        )
        (pin passive line (at 0 -3.81 90) (length 1.27)
          (name "~" (effects (font (size 1.27 1.27))))
          (number "2" (effects (font (size 1.27 1.27))))
        )
      )
    )
    (symbol "SW_DIP_x01_1" (pin_names (offset 0) hide) (in_bom yes) (on_board yes)
      (property "Reference" "SW1" (at 0 5.08 0)
        (effects (font (size 1.27 1.27)))
      )
      (property "Value" "" (at -5.08 3.81 0)
        (effects (font (size 1.27 1.27)))
      )
      (property "Footprint" "" (at 0 0 0)
        (effects (font (size 1.27 1.27)) hide)
      )
      (property "Datasheet" "S" (at 0 -1.27 0)
        (effects (font (size 1.27 1.27)) hide)
      )
      (property "ki_keywords" "dip switch" (at 0 0 0)
        (effects (font (size 1.27 1.27)) hide)
      )
      (property "ki_description" "1x DIP Switch, Single Pole Single Throw (SPST) switch, small symbol" (at 0 0 0)
        (effects (font (size 1.27 1.27)) hide)
      )
      (property "ki_fp_filters" "SW?DIP?x1*" (at 0 0 0)
        (effects (font (size 1.27 1.27)) hide)
      )
      (symbol "SW_DIP_x01_1_0_0"
        (circle (center -2.032 0) (radius 0.508)
          (stroke (width 0) (type default))
          (fill (type none))
        )
        (polyline
          (pts
            (xy -2.54 0)
            (xy 1.27 2.54)
          )
          (stroke (width 0) (type default))
          (fill (type none))
        )
        (circle (center 2.032 0) (radius 0.508)
          (stroke (width 0) (type default))
          (fill (type none))
        )
      )
      (symbol "SW_DIP_x01_1_1_1"
        (pin passive line (at -7.62 0 0) (length 5.08)
          (name "~" (effects (font (size 1.27 1.27))))
          (number "1" (effects (font (size 1.27 1.27))))
        )
        (pin passive line (at 7.62 0 180) (length 5.08)
          (name "~" (effects (font (size 1.27 1.27))))
          (number "2" (effects (font (size 1.27 1.27))))
        )
      )
    )
    (symbol "power:GND" (power) (pin_names (offset 0)) (in_bom yes) (on_board yes)
      (property "Reference" "#PWR" (at 0 -6.35 0)
        (effects (font (size 1.27 1.27)) hide)
      )
      (property "Value" "GND" (at 0 -3.81 0)
        (effects (font (size 1.27 1.27)))
      )
      (property "Footprint" "" (at 0 0 0)
        (effects (font (size 1.27 1.27)) hide)
      )
      (property "Datasheet" "" (at 0 0 0)
        (effects (font (size 1.27 1.27)) hide)
      )
      (property "ki_keywords" "global power" (at 0 0 0)
        (effects (font (size 1.27 1.27)) hide)
      )
      (property "ki_description" "Power symbol creates a global label with name \"GND\" , ground" (at 0 0 0)
        (effects (font (size 1.27 1.27)) hide)
      )
      (symbol "GND_0_1"
        (polyline
          (pts
            (xy 0 0)
            (xy 0 -1.27)
            (xy 1.27 -1.27)
            (xy 0 -2.54)
            (xy -1.27 -1.27)
            (xy 0 -1.27)
          )
          (stroke (width 0) (type default))
          (fill (type none))
        )
      )
      (symbol "GND_1_1"
        (pin power_in line (at 0 0 270) (length 0) hide
          (name "GND" (effects (font (size 1.27 1.27))))
          (number "1" (effects (font (size 1.27 1.27))))
        )
      )
    )
    (symbol "power:VCC" (power) (pin_names (offset 0)) (in_bom yes) (on_board yes)
      (property "Reference" "#PWR" (at 0 -3.81 0)
        (effects (font (size 1.27 1.27)) hide)
      )
      (property "Value" "VCC" (at 0 3.81 0)
        (effects (font (size 1.27 1.27)))
      )
      (property "Footprint" "" (at 0 0 0)
        (effects (font (size 1.27 1.27)) hide)
      )
      (property "Datasheet" "" (at 0 0 0)
        (effects (font (size 1.27 1.27)) hide)
      )
      (property "ki_keywords" "global power" (at 0 0 0)
        (effects (font (size 1.27 1.27)) hide)
      )
      (property "ki_description" "Power symbol creates a global label with name \"VCC\"" (at 0 0 0)
        (effects (font (size 1.27 1.27)) hide)
      )
      (symbol "VCC_0_1"
        (polyline
          (pts
            (xy -0.762 1.27)
            (xy 0 2.54)
          )
          (stroke (width 0) (type default))
          (fill (type none))
        )
        (polyline
          (pts
            (xy 0 0)
            (xy 0 2.54)
          )
          (stroke (width 0) (type default))
          (fill (type none))
        )
        (polyline
          (pts
            (xy 0 2.54)
            (xy 0.762 1.27)
          )
          (stroke (width 0) (type default))
          (fill (type none))
        )
      )
      (symbol "VCC_1_1"
        (pin power_in line (at 0 0 90) (length 0) hide
          (name "VCC" (effects (font (size 1.27 1.27))))
          (number "1" (effects (font (size 1.27 1.27))))
        )
      )
    )
  )

  (junction (at 52.07 41.91) (diameter 0) (color 0 0 0 0)
    (uuid 02f22385-dee5-477e-8a22-b98c459862ca)
  )
  (junction (at 125.73 44.45) (diameter 0) (color 0 0 0 0)
    (uuid 03d32f30-dc03-4af1-a178-bc70bd2dd57d)
  )
  (junction (at 77.47 44.45) (diameter 0) (color 0 0 0 0)
    (uuid 103b98f2-5ac3-4ccc-b9da-8238b43c746c)
  )
  (junction (at 221.615 108.585) (diameter 0) (color 0 0 0 0)
    (uuid 11e0d27c-293d-4678-9643-ed2e4221d4bc)
  )
  (junction (at 116.205 132.715) (diameter 0) (color 0 0 0 0)
    (uuid 20d9360d-0118-49fb-8de3-1f4664a7b4e5)
  )
  (junction (at 247.015 116.205) (diameter 0) (color 0 0 0 0)
    (uuid 2f9900ac-e29c-413a-b230-7a8465463206)
  )
  (junction (at 151.13 52.07) (diameter 0) (color 0 0 0 0)
    (uuid 47cf0d66-ecf0-497f-8683-b69376497e8e)
  )
  (junction (at 95.885 121.285) (diameter 0) (color 0 0 0 0)
    (uuid 5451a06b-5c53-4030-8ba1-50ec005c9ce6)
  )
  (junction (at 31.75 53.34) (diameter 0) (color 0 0 0 0)
    (uuid 6084a308-60a9-41b9-8bfb-fd8648b0d11b)
  )
  (junction (at 126.365 108.585) (diameter 0) (color 0 0 0 0)
    (uuid 6291602b-ba00-456e-80fe-452268fdbce5)
  )
  (junction (at 155.575 126.365) (diameter 0) (color 0 0 0 0)
    (uuid 66b6e7e9-a3fe-4aa7-86ca-60a5317017ee)
  )
  (junction (at 151.13 44.45) (diameter 0) (color 0 0 0 0)
    (uuid 71af55b6-5b00-4917-a9b4-713f36ca8cec)
  )
  (junction (at 57.15 54.61) (diameter 0) (color 0 0 0 0)
    (uuid 7971ab32-acd1-4840-bef3-8cc20fe71994)
  )
  (junction (at 77.47 66.04) (diameter 0) (color 0 0 0 0)
    (uuid 8f97b7fd-6ebb-4bef-b49e-5bf63ee91fa1)
  )
  (junction (at 90.805 108.585) (diameter 0) (color 0 0 0 0)
    (uuid 92575cc3-1cef-47b4-bc32-912735d776ab)
  )
  (junction (at 191.135 106.045) (diameter 0) (color 0 0 0 0)
    (uuid 9dad080e-cd47-4041-b177-ce99fa42e486)
  )
  (junction (at 125.73 64.77) (diameter 0) (color 0 0 0 0)
    (uuid a7e1927d-8da4-4228-947e-0de75d13bdbe)
  )
  (junction (at 221.615 128.905) (diameter 0) (color 0 0 0 0)
    (uuid a9bc1c01-4cf4-4dc7-9f97-99163b4aa4df)
  )
  (junction (at 151.765 120.015) (diameter 0) (color 0 0 0 0)
    (uuid c68004f6-63c3-4085-80af-906680b05e64)
  )
  (junction (at 247.015 108.585) (diameter 0) (color 0 0 0 0)
    (uuid ce949e82-d443-4e1f-95de-32c7087b861f)
  )
  (junction (at 70.485 120.015) (diameter 0) (color 0 0 0 0)
    (uuid cf0b3a4e-098f-45dc-b9e1-e47ef8a3b95a)
  )
  (junction (at 154.305 131.445) (diameter 0) (color 0 0 0 0)
    (uuid f5bd0d45-b263-4143-a982-297ac1834d1e)
  )
  (junction (at 116.205 111.125) (diameter 0) (color 0 0 0 0)
    (uuid f6e4be53-c8f0-473e-9995-a5f56716f126)
  )

  (wire (pts (xy 39.37 73.66) (xy 77.47 73.66))
    (stroke (width 0) (type default))
    (uuid 03a410ba-4d42-4816-8d81-14506bd6cb16)
  )
  (wire (pts (xy 65.405 120.015) (xy 70.485 120.015))
    (stroke (width 0) (type default))
    (uuid 07021549-649d-4609-80cd-55025c1d56a8)
  )
  (wire (pts (xy 100.965 111.125) (xy 95.885 111.125))
    (stroke (width 0) (type default))
    (uuid 0b82bc94-0919-49ac-82a4-ea809ffa52dd)
  )
  (wire (pts (xy 229.235 128.905) (xy 239.395 128.905))
    (stroke (width 0) (type default))
    (uuid 0e03fa83-8a0c-4895-8e41-8adce859fd86)
  )
  (wire (pts (xy 247.015 116.205) (xy 259.715 116.205))
    (stroke (width 0) (type default))
    (uuid 13e22643-1d75-4342-b752-103682e12185)
  )
  (wire (pts (xy 39.37 60.96) (xy 39.37 73.66))
    (stroke (width 0) (type default))
    (uuid 14a08781-66a8-4329-be43-2902827c17b7)
  )
  (wire (pts (xy 154.305 154.305) (xy 154.305 131.445))
    (stroke (width 0) (type default))
    (uuid 15dd423c-9504-434c-a39c-eefb75f136c7)
  )
  (wire (pts (xy 206.375 128.905) (xy 221.615 128.905))
    (stroke (width 0) (type default))
    (uuid 18515ab0-ba09-4028-8860-30bf53b328ac)
  )
  (wire (pts (xy 120.015 108.585) (xy 126.365 108.585))
    (stroke (width 0) (type default))
    (uuid 1b85cc6a-a2ec-42db-901e-77493fb76be3)
  )
  (wire (pts (xy 95.25 67.31) (xy 81.28 67.31))
    (stroke (width 0) (type default))
    (uuid 1c1e5dd0-92d7-44e6-96e5-07e366f9a4a0)
  )
  (wire (pts (xy 81.28 41.91) (xy 81.28 44.45))
    (stroke (width 0) (type default))
    (uuid 1c433be4-883a-4ccf-be30-cf03e40f00b9)
  )
  (wire (pts (xy 151.765 113.665) (xy 154.305 113.665))
    (stroke (width 0) (type default))
    (uuid 1f07deff-794c-4d7d-b3b0-1b98777ee7d3)
  )
  (wire (pts (xy 77.47 66.04) (xy 77.47 73.66))
    (stroke (width 0) (type default))
    (uuid 2195cb3d-463d-416b-9373-ea2b90e2006a)
  )
  (wire (pts (xy 149.86 44.45) (xy 151.13 44.45))
    (stroke (width 0) (type default))
    (uuid 26479875-62f5-4147-8106-49a4c95fdf67)
  )
  (wire (pts (xy 116.205 132.715) (xy 120.015 132.715))
    (stroke (width 0) (type default))
    (uuid 26e3ebd1-a05d-46e3-ac4d-265f48a5f6cf)
  )
  (wire (pts (xy 151.765 120.015) (xy 151.765 113.665))
    (stroke (width 0) (type default))
    (uuid 27a9a723-135e-464d-b70e-ee2319be614f)
  )
  (wire (pts (xy 57.15 44.45) (xy 57.15 54.61))
    (stroke (width 0) (type default))
    (uuid 2f7c8153-48de-468a-b088-e19db21166ea)
  )
  (wire (pts (xy 95.885 121.285) (xy 95.885 132.715))
    (stroke (width 0) (type default))
    (uuid 31ae43a6-5e54-43eb-94e4-2cc148dba4ca)
  )
  (wire (pts (xy 206.375 108.585) (xy 221.615 108.585))
    (stroke (width 0) (type default))
    (uuid 33ce05d6-37d9-4095-a398-f7f6fc2462f0)
  )
  (wire (pts (xy 245.745 108.585) (xy 247.015 108.585))
    (stroke (width 0) (type default))
    (uuid 38229c6f-40f4-43a6-a66f-cb7e026236cc)
  )
  (wire (pts (xy 179.705 128.905) (xy 179.705 131.445))
    (stroke (width 0) (type default))
    (uuid 38bfafdd-8e24-4187-8422-28204b7478a3)
  )
  (wire (pts (xy 151.13 52.07) (xy 163.83 52.07))
    (stroke (width 0) (type default))
    (uuid 3b28cf47-26a6-4384-b674-8b7c51dd2420)
  )
  (wire (pts (xy 110.49 64.77) (xy 125.73 64.77))
    (stroke (width 0) (type default))
    (uuid 3f37d260-38ea-465c-a14b-f95b4209bbfc)
  )
  (wire (pts (xy 133.985 133.985) (xy 120.015 133.985))
    (stroke (width 0) (type default))
    (uuid 4821c451-6353-4c1b-96d3-3be4a4d82b48)
  )
  (wire (pts (xy 70.485 120.015) (xy 70.485 127.635))
    (stroke (width 0) (type default))
    (uuid 487f0624-d389-4020-b1dc-583cbc90d4e6)
  )
  (wire (pts (xy 116.205 132.715) (xy 116.205 140.335))
    (stroke (width 0) (type default))
    (uuid 500303e4-71ea-4214-93dc-62941d0c866e)
  )
  (wire (pts (xy 229.235 108.585) (xy 239.395 108.585))
    (stroke (width 0) (type default))
    (uuid 59400006-8312-48ed-8cdd-2499be37f8e8)
  )
  (wire (pts (xy 187.325 116.205) (xy 187.325 126.365))
    (stroke (width 0) (type default))
    (uuid 5b3da8e9-f3e6-404d-a163-3904f20a8482)
  )
  (wire (pts (xy 126.365 108.585) (xy 126.365 154.305))
    (stroke (width 0) (type default))
    (uuid 5c6ed2d1-45ed-4c1e-8b4a-b220ff3aea1f)
  )
  (wire (pts (xy 125.73 52.07) (xy 91.44 52.07))
    (stroke (width 0) (type default))
    (uuid 5daf0d17-894b-420d-8677-ba2a5d1a72b4)
  )
  (wire (pts (xy 179.705 131.445) (xy 191.135 131.445))
    (stroke (width 0) (type default))
    (uuid 610a6f6b-6349-4d97-a5fd-eb889563023d)
  )
  (wire (pts (xy 90.805 108.585) (xy 90.805 121.285))
    (stroke (width 0) (type default))
    (uuid 6399bd49-7a13-4b73-9a8a-10a3b6ee15e1)
  )
  (wire (pts (xy 125.73 64.77) (xy 125.73 57.15))
    (stroke (width 0) (type default))
    (uuid 6434d07d-3dac-4976-a0f0-f755bc5474f1)
  )
  (wire (pts (xy 90.805 107.315) (xy 90.805 108.585))
    (stroke (width 0) (type default))
    (uuid 650840e7-0481-4298-857f-1c2cd686ca61)
  )
  (wire (pts (xy 57.15 66.04) (xy 62.23 66.04))
    (stroke (width 0) (type default))
    (uuid 668f5949-1f31-4c17-9ed0-a3c3d38c45c2)
  )
  (wire (pts (xy 221.615 121.285) (xy 191.135 121.285))
    (stroke (width 0) (type default))
    (uuid 698f424d-2c6a-46c4-a893-8c262d4eb202)
  )
  (wire (pts (xy 52.07 40.64) (xy 52.07 41.91))
    (stroke (width 0) (type default))
    (uuid 6c53305b-6714-4f7f-835e-cb01bf4063af)
  )
  (wire (pts (xy 151.13 52.07) (xy 151.13 44.45))
    (stroke (width 0) (type default))
    (uuid 6d5b3579-cc4d-4b35-a690-36fedf446d26)
  )
  (wire (pts (xy 95.25 41.91) (xy 81.28 41.91))
    (stroke (width 0) (type default))
    (uuid 7280ba28-b0f3-4018-b9c3-15b65f0da625)
  )
  (wire (pts (xy 62.23 44.45) (xy 57.15 44.45))
    (stroke (width 0) (type default))
    (uuid 746c6bc2-d79b-49ec-8446-9abe826c8109)
  )
  (wire (pts (xy 91.44 62.23) (xy 95.25 62.23))
    (stroke (width 0) (type default))
    (uuid 76766283-30a7-48f0-8b20-43a92cd5b69c)
  )
  (wire (pts (xy 57.15 54.61) (xy 57.15 66.04))
    (stroke (width 0) (type default))
    (uuid 768df503-812e-4f00-b548-43c791c084ca)
  )
  (wire (pts (xy 116.205 98.425) (xy 78.105 98.425))
    (stroke (width 0) (type default))
    (uuid 76c53888-dd59-4873-9824-046c1f8549b0)
  )
  (wire (pts (xy 133.985 120.015) (xy 151.765 120.015))
    (stroke (width 0) (type default))
    (uuid 76f58748-2cde-40f2-a6d6-96e8e1318aad)
  )
  (wire (pts (xy 169.545 111.125) (xy 182.245 111.125))
    (stroke (width 0) (type default))
    (uuid 77aa9b52-1de4-4d56-9277-79dbfb77d0a5)
  )
  (wire (pts (xy 81.28 44.45) (xy 77.47 44.45))
    (stroke (width 0) (type default))
    (uuid 8104c31e-ff88-4be1-a64a-c1b611ff8a22)
  )
  (wire (pts (xy 182.245 111.125) (xy 182.245 106.045))
    (stroke (width 0) (type default))
    (uuid 81659383-dab3-4427-891f-f74b170e7839)
  )
  (wire (pts (xy 52.07 54.61) (xy 57.15 54.61))
    (stroke (width 0) (type default))
    (uuid 817deb91-c38c-47ff-be8d-c61840b1f5cb)
  )
  (wire (pts (xy 78.105 140.335) (xy 116.205 140.335))
    (stroke (width 0) (type default))
    (uuid 84bb27ef-db37-4d74-90c8-108d4a09cc4b)
  )
  (wire (pts (xy 125.73 57.15) (xy 95.25 57.15))
    (stroke (width 0) (type default))
    (uuid 8535d457-f2a0-430d-aabd-4b89648c7825)
  )
  (wire (pts (xy 187.325 126.365) (xy 191.135 126.365))
    (stroke (width 0) (type default))
    (uuid 85be8c1c-7ab7-4fa8-89ac-9b78cacd7519)
  )
  (wire (pts (xy 221.615 108.585) (xy 221.615 116.205))
    (stroke (width 0) (type default))
    (uuid 88c49ef9-9315-4fa1-b671-e9d0d6bf2ded)
  )
  (wire (pts (xy 221.615 128.905) (xy 221.615 121.285))
    (stroke (width 0) (type default))
    (uuid 8c029c3b-4efd-46ea-919f-bea2bed104c4)
  )
  (wire (pts (xy 39.37 31.75) (xy 39.37 49.53))
    (stroke (width 0) (type default))
    (uuid 906ad364-c193-456b-9558-09f72e68defd)
  )
  (wire (pts (xy 26.67 53.34) (xy 31.75 53.34))
    (stroke (width 0) (type default))
    (uuid 9552e10f-1611-442e-83d1-2a9d33d9181b)
  )
  (wire (pts (xy 116.205 111.125) (xy 116.205 98.425))
    (stroke (width 0) (type default))
    (uuid 98456211-a39a-49e1-90eb-56841864acb5)
  )
  (wire (pts (xy 31.75 53.34) (xy 31.75 49.53))
    (stroke (width 0) (type default))
    (uuid 989fd3a5-e082-40ad-bbd8-ecdc3d26729f)
  )
  (wire (pts (xy 77.47 31.75) (xy 39.37 31.75))
    (stroke (width 0) (type default))
    (uuid 9914852e-02d9-485b-b4ef-2e73c3dbc8d0)
  )
  (wire (pts (xy 151.765 126.365) (xy 155.575 126.365))
    (stroke (width 0) (type default))
    (uuid 992cc2e0-dc1e-4158-9943-fa2c52421c68)
  )
  (wire (pts (xy 77.47 44.45) (xy 77.47 31.75))
    (stroke (width 0) (type default))
    (uuid 9b2925fe-bbb4-4a95-aea1-cb58220e1e9b)
  )
  (wire (pts (xy 154.305 131.445) (xy 155.575 131.445))
    (stroke (width 0) (type default))
    (uuid a4574f52-7635-4670-aa75-d83b63b1daa6)
  )
  (wire (pts (xy 77.47 66.04) (xy 81.28 66.04))
    (stroke (width 0) (type default))
    (uuid aeae3ec8-7c5c-40a2-8191-b5e34a75388d)
  )
  (wire (pts (xy 110.49 44.45) (xy 125.73 44.45))
    (stroke (width 0) (type default))
    (uuid b4cc476a-30c4-49db-a99b-4c16b26ba954)
  )
  (wire (pts (xy 133.35 44.45) (xy 143.51 44.45))
    (stroke (width 0) (type default))
    (uuid b8de8296-b7da-467c-b785-d6cefdc41e77)
  )
  (wire (pts (xy 191.135 106.045) (xy 192.405 106.045))
    (stroke (width 0) (type default))
    (uuid ba7abaa9-376b-4ac6-a89a-53fbac61b764)
  )
  (wire (pts (xy 78.105 127.635) (xy 78.105 140.335))
    (stroke (width 0) (type default))
    (uuid bc9031b3-73fa-472b-b8e9-cdf0569fb8d6)
  )
  (wire (pts (xy 78.105 98.425) (xy 78.105 116.205))
    (stroke (width 0) (type default))
    (uuid bef4593f-7263-4716-980e-885ea2f28784)
  )
  (wire (pts (xy 70.485 120.015) (xy 70.485 116.205))
    (stroke (width 0) (type default))
    (uuid bf6c2eaa-70d1-4ff3-9452-ac4725b1d3e6)
  )
  (wire (pts (xy 31.75 53.34) (xy 31.75 60.96))
    (stroke (width 0) (type default))
    (uuid bf8287a7-2cc6-4f6d-aeca-86891bb82fbd)
  )
  (wire (pts (xy 151.13 64.77) (xy 151.13 52.07))
    (stroke (width 0) (type default))
    (uuid c2e32b2c-8598-48fb-b14b-fc690ac254f5)
  )
  (wire (pts (xy 221.615 116.205) (xy 187.325 116.205))
    (stroke (width 0) (type default))
    (uuid c4536be7-cda3-443c-b5a6-fabf593e6166)
  )
  (wire (pts (xy 151.765 120.015) (xy 151.765 126.365))
    (stroke (width 0) (type default))
    (uuid c47b345b-f93d-4593-887a-3ad3227c0489)
  )
  (wire (pts (xy 155.575 126.365) (xy 156.845 126.365))
    (stroke (width 0) (type default))
    (uuid c5f62a43-54a1-4a92-9d83-27b6e554e18c)
  )
  (wire (pts (xy 120.015 111.125) (xy 116.205 111.125))
    (stroke (width 0) (type default))
    (uuid c710c594-1f38-4836-9083-d9bbdb0e20c9)
  )
  (wire (pts (xy 182.245 106.045) (xy 191.135 106.045))
    (stroke (width 0) (type default))
    (uuid c944a754-6a17-4d4a-b41f-e301564e0f0b)
  )
  (wire (pts (xy 125.73 44.45) (xy 125.73 52.07))
    (stroke (width 0) (type default))
    (uuid ccce7d0f-10ea-483f-810c-58bbe6debded)
  )
  (wire (pts (xy 95.885 111.125) (xy 95.885 121.285))
    (stroke (width 0) (type default))
    (uuid cde35ee3-afc2-4db2-949b-c1325bc7051a)
  )
  (wire (pts (xy 52.07 41.91) (xy 52.07 54.61))
    (stroke (width 0) (type default))
    (uuid ce80f101-7b52-4c69-87b3-1fd340ba9fc4)
  )
  (wire (pts (xy 133.985 133.985) (xy 133.985 120.015))
    (stroke (width 0) (type default))
    (uuid d03034d4-7db2-4449-bf78-fc1fad3b8bab)
  )
  (wire (pts (xy 91.44 52.07) (xy 91.44 62.23))
    (stroke (width 0) (type default))
    (uuid d051966b-e65e-4323-89fb-0cad2c2a1737)
  )
  (wire (pts (xy 247.015 128.905) (xy 247.015 116.205))
    (stroke (width 0) (type default))
    (uuid d38166d5-7c5e-4dc9-9192-2ba92c73355a)
  )
  (wire (pts (xy 191.135 121.285) (xy 191.135 111.125))
    (stroke (width 0) (type default))
    (uuid d72fdf55-16fb-4855-8e89-ed2efe731b4b)
  )
  (wire (pts (xy 95.885 132.715) (xy 100.965 132.715))
    (stroke (width 0) (type default))
    (uuid da431cc6-5c08-45ff-8c19-a5b19901d72f)
  )
  (wire (pts (xy 153.035 131.445) (xy 154.305 131.445))
    (stroke (width 0) (type default))
    (uuid dd782d23-1e3c-467c-bdcf-f6582234e2b3)
  )
  (wire (pts (xy 90.805 121.285) (xy 95.885 121.285))
    (stroke (width 0) (type default))
    (uuid e2fb0dc0-3b0d-41f1-8ef1-29d4fe6228f9)
  )
  (wire (pts (xy 170.815 128.905) (xy 179.705 128.905))
    (stroke (width 0) (type default))
    (uuid e705c368-d211-419f-85d0-1541c2976c6f)
  )
  (wire (pts (xy 247.015 116.205) (xy 247.015 108.585))
    (stroke (width 0) (type default))
    (uuid e8c65e83-8794-40ce-b703-045ee045cfd8)
  )
  (wire (pts (xy 120.015 133.985) (xy 120.015 132.715))
    (stroke (width 0) (type default))
    (uuid e9cf5a6d-5a60-4b5a-9b02-bab2fa86f428)
  )
  (wire (pts (xy 120.015 108.585) (xy 120.015 111.125))
    (stroke (width 0) (type default))
    (uuid ea6552c1-a0a9-4502-bf89-4295537ea16f)
  )
  (wire (pts (xy 126.365 108.585) (xy 154.305 108.585))
    (stroke (width 0) (type default))
    (uuid f5f1c6ec-d271-413a-a3f7-72939c3cae4b)
  )
  (wire (pts (xy 81.28 67.31) (xy 81.28 66.04))
    (stroke (width 0) (type default))
    (uuid f607b523-6b41-4268-b34d-5f3463a0a16c)
  )
  (wire (pts (xy 133.35 64.77) (xy 143.51 64.77))
    (stroke (width 0) (type default))
    (uuid f73c06cd-b429-4b71-ad8f-53da1fce0f06)
  )
  (wire (pts (xy 95.25 57.15) (xy 95.25 46.99))
    (stroke (width 0) (type default))
    (uuid feac85a1-6a21-4bb3-8dfe-c5c1367444ca)
  )

  (text "R\n" (at 68.58 68.58 0)
    (effects (font (size 1.27 1.27)) (justify left bottom))
    (uuid 3ebda9ad-e6a6-4989-ab57-750157ec9c96)
  )
  (text "~{S}\n" (at 69.85 46.99 0)
    (effects (font (size 1.27 1.27)) (justify left bottom))
    (uuid aa0dd0d6-9073-4cf1-b378-f0e3c777ba15)
  )
  (text "D" (at 108.585 113.665 0)
    (effects (font (size 1.27 1.27)) (justify left bottom))
    (uuid deb28cc0-3f70-4d21-8747-3a278a2b187f)
  )
  (text "E" (at 108.585 135.255 0)
    (effects (font (size 1.27 1.27)) (justify left bottom))
    (uuid f0800b0a-a1f2-4739-985a-4a1e334be0a7)
  )

  (label "Schematic_1:_S-R_Latch." (at 71.755 76.2 0) (fields_autoplaced)
    (effects (font (size 1.27 1.27)) (justify left bottom))
    (uuid 0699e587-4b14-465d-9d0c-8df79d45eff2)
  )

  (symbol (lib_id "Device:LED") (at 129.54 64.77 0) (mirror y) (unit 1)
    (in_bom yes) (on_board yes) (dnp no)
    (uuid 04428336-d050-4edb-b90f-98d5165c95c8)
    (property "Reference" "D2" (at 131.1275 59.69 0)
      (effects (font (size 1.27 1.27)))
    )
    (property "Value" "LED" (at 131.1275 62.23 0)
      (effects (font (size 1.27 1.27)))
    )
    (property "Footprint" "" (at 129.54 64.77 0)
      (effects (font (size 1.27 1.27)) hide)
    )
    (property "Datasheet" "~" (at 129.54 64.77 0)
      (effects (font (size 1.27 1.27)) hide)
    )
    (pin "1" (uuid 4729d6e5-9972-4f50-976e-2086e49f02c7))
    (pin "2" (uuid 79b3f202-eb45-4408-bbeb-6b120d8ee86a))
    (instances
      (project "lab2"
        (path "/6a79675d-9085-4aea-b8c4-79780d4b41fb"
          (reference "D2") (unit 1)
        )
      )
    )
  )

  (symbol (lib_id "Device:R") (at 35.56 60.96 270) (mirror x) (unit 1)
    (in_bom yes) (on_board yes) (dnp no)
    (uuid 0556fb32-2db5-4f7c-90e8-7008aa4ecf93)
    (property "Reference" "R1" (at 35.56 64.77 0)
      (effects (font (size 1.27 1.27)) (justify left))
    )
    (property "Value" "R" (at 33.655 58.42 0)
      (effects (font (size 1.27 1.27)) (justify left) hide)
    )
    (property "Footprint" "" (at 35.56 62.738 90)
      (effects (font (size 1.27 1.27)) hide)
    )
    (property "Datasheet" "~" (at 35.56 60.96 0)
      (effects (font (size 1.27 1.27)) hide)
    )
    (pin "1" (uuid 5debd135-2905-46bb-beb9-7503a8b08f0b))
    (pin "2" (uuid 55f5ef64-960a-4c02-b8cf-41b01de66dd4))
    (instances
      (project "lab2"
        (path "/6a79675d-9085-4aea-b8c4-79780d4b41fb"
          (reference "R1") (unit 1)
        )
      )
    )
  )

  (symbol (lib_id "Device:R") (at 74.295 127.635 270) (mirror x) (unit 1)
    (in_bom yes) (on_board yes) (dnp no)
    (uuid 11558176-55a2-4999-a5c3-5ea7c76c6ed1)
    (property "Reference" "R6" (at 74.295 131.445 90)
      (effects (font (size 1.27 1.27)) (justify left))
    )
    (property "Value" "R" (at 72.39 125.095 0)
      (effects (font (size 1.27 1.27)) (justify left) hide)
    )
    (property "Footprint" "" (at 74.295 129.413 90)
      (effects (font (size 1.27 1.27)) hide)
    )
    (property "Datasheet" "~" (at 74.295 127.635 0)
      (effects (font (size 1.27 1.27)) hide)
    )
    (pin "1" (uuid 12371ec6-133d-43ec-98b3-1f2de2eca568))
    (pin "2" (uuid ba76fbed-a049-4a2b-b749-6f4d044abea9))
    (instances
      (project "lab2"
        (path "/6a79675d-9085-4aea-b8c4-79780d4b41fb"
          (reference "R6") (unit 1)
        )
      )
    )
  )

  (symbol (lib_name "SW_DIP_x01_1") (lib_id "Switch:SW_DIP_x01") (at 108.585 132.715 0) (unit 1)
    (in_bom yes) (on_board yes) (dnp no)
    (uuid 18607a17-158d-439a-8cd9-04acd175fb9d)
    (property "Reference" "SW4" (at 108.585 127.635 0)
      (effects (font (size 1.27 1.27)))
    )
    (property "Value" "~" (at 103.505 128.905 0)
      (effects (font (size 1.27 1.27)))
    )
    (property "Footprint" "" (at 108.585 132.715 0)
      (effects (font (size 1.27 1.27)) hide)
    )
    (property "Datasheet" "E" (at 108.585 133.985 0)
      (effects (font (size 1.27 1.27)) hide)
    )
    (pin "1" (uuid edaa09ba-7609-4006-86d8-0300c9a3a395))
    (pin "2" (uuid 873d65b7-bf8b-4aca-b22a-9968876c96e9))
    (instances
      (project "lab2"
        (path "/6a79675d-9085-4aea-b8c4-79780d4b41fb"
          (reference "SW4") (unit 1)
        )
      )
    )
  )

  (symbol (lib_name "R_1") (lib_id "Device:R") (at 74.295 116.205 90) (unit 1)
    (in_bom yes) (on_board yes) (dnp no)
    (uuid 1d0179fc-eb66-4235-8325-32447c0bf716)
    (property "Reference" "R5" (at 74.295 113.665 90)
      (effects (font (size 1.27 1.27)) (justify left))
    )
    (property "Value" "R" (at 78.105 103.505 0)
      (effects (font (size 1.27 1.27)) (justify left) hide)
    )
    (property "Footprint" "" (at 74.295 117.983 90)
      (effects (font (size 1.27 1.27)) hide)
    )
    (property "Datasheet" "R" (at 74.295 116.205 0)
      (effects (font (size 1.27 1.27)) hide)
    )
    (pin "1" (uuid a22337b7-99c4-4aef-ad46-53df920ba8e7))
    (pin "2" (uuid fa51c32d-e26d-4e53-af98-e89bb853fedc))
    (instances
      (project "lab2"
        (path "/6a79675d-9085-4aea-b8c4-79780d4b41fb"
          (reference "R5") (unit 1)
        )
      )
    )
  )

  (symbol (lib_id "74xGxx:74AUC2G04") (at 141.605 154.305 0) (unit 1)
    (in_bom yes) (on_board yes) (dnp no) (fields_autoplaced)
    (uuid 1db38113-24e5-4610-bffd-46e754c9a466)
    (property "Reference" "U2" (at 140.335 144.145 0)
      (effects (font (size 1.27 1.27)))
    )
    (property "Value" "7404" (at 140.335 146.685 0)
      (effects (font (size 1.27 1.27)))
    )
    (property "Footprint" "" (at 141.605 154.305 0)
      (effects (font (size 1.27 1.27)) hide)
    )
    (property "Datasheet" "http://www.ti.com/lit/sg/scyt129e/scyt129e.pdf" (at 141.605 154.305 0)
      (effects (font (size 1.27 1.27)) hide)
    )
    (pin "1" (uuid b3066c3d-8158-47cc-9cc0-ab6e7872a9e6))
    (pin "6" (uuid 3b5baaf9-d410-40bc-9d2e-53ec4c84b0ab))
    (pin "3" (uuid 021887e8-5f18-4228-ab26-05759f5287e1))
    (pin "4" (uuid da0c5a83-c399-470f-bec2-5069a11cbd05))
    (pin "2" (uuid 67435cee-255f-4eaf-9478-2c520d9ebf13))
    (pin "5" (uuid 6e312f6b-22e5-4c6d-9ee2-d7a145463a74))
    (instances
      (project "lab2"
        (path "/6a79675d-9085-4aea-b8c4-79780d4b41fb"
          (reference "U2") (unit 1)
        )
      )
    )
  )

  (symbol (lib_id "Device:LED") (at 225.425 128.905 0) (mirror y) (unit 1)
    (in_bom yes) (on_board yes) (dnp no)
    (uuid 1f4c2fb3-860b-4253-b988-d3588d9f1e7d)
    (property "Reference" "D4" (at 227.0125 123.825 0)
      (effects (font (size 1.27 1.27)))
    )
    (property "Value" "LED" (at 227.0125 126.365 0)
      (effects (font (size 1.27 1.27)))
    )
    (property "Footprint" "" (at 225.425 128.905 0)
      (effects (font (size 1.27 1.27)) hide)
    )
    (property "Datasheet" "~" (at 225.425 128.905 0)
      (effects (font (size 1.27 1.27)) hide)
    )
    (pin "1" (uuid 99eee5d6-46da-4afd-99ab-aa1d76fc936a))
    (pin "2" (uuid cfda5597-41a3-4cc1-ab25-e1affdd3325c))
    (instances
      (project "lab2"
        (path "/6a79675d-9085-4aea-b8c4-79780d4b41fb"
          (reference "D4") (unit 1)
        )
      )
    )
  )

  (symbol (lib_name "R_1") (lib_id "Device:R") (at 243.205 108.585 90) (unit 1)
    (in_bom yes) (on_board yes) (dnp no)
    (uuid 25799804-5329-4ddf-a1a6-db8f72680c8f)
    (property "Reference" "R7" (at 243.205 106.045 90)
      (effects (font (size 1.27 1.27)) (justify right))
    )
    (property "Value" "R" (at 247.015 95.885 0)
      (effects (font (size 1.27 1.27)) (justify left) hide)
    )
    (property "Footprint" "" (at 243.205 110.363 90)
      (effects (font (size 1.27 1.27)) hide)
    )
    (property "Datasheet" "R" (at 243.205 108.585 0)
      (effects (font (size 1.27 1.27)) hide)
    )
    (pin "1" (uuid c5760bef-6039-430a-9345-7de1f5d658b5))
    (pin "2" (uuid 846509e1-8a7f-4fb0-aa0e-c09a0952fff8))
    (instances
      (project "lab2"
        (path "/6a79675d-9085-4aea-b8c4-79780d4b41fb"
          (reference "R7") (unit 1)
        )
      )
    )
  )

  (symbol (lib_id "power:VCC") (at 52.07 41.91 0) (unit 1)
    (in_bom yes) (on_board yes) (dnp no) (fields_autoplaced)
    (uuid 27b838d1-0cba-4ea8-b6dd-331400202e4e)
    (property "Reference" "#PWR01" (at 52.07 45.72 0)
      (effects (font (size 1.27 1.27)) hide)
    )
    (property "Value" "VCC" (at 52.07 38.1 0)
      (effects (font (size 1.27 1.27)))
    )
    (property "Footprint" "" (at 52.07 41.91 0)
      (effects (font (size 1.27 1.27)) hide)
    )
    (property "Datasheet" "" (at 52.07 41.91 0)
      (effects (font (size 1.27 1.27)) hide)
    )
    (pin "1" (uuid 57a0af1f-0380-4f55-aaa1-0518b62a662d))
    (instances
      (project "lab2"
        (path "/6a79675d-9085-4aea-b8c4-79780d4b41fb"
          (reference "#PWR01") (unit 1)
        )
      )
    )
  )

  (symbol (lib_id "74xx:7400") (at 161.925 111.125 0) (unit 1)
    (in_bom yes) (on_board yes) (dnp no)
    (uuid 2df15fd3-dc41-4ecc-8b8f-276affeab094)
    (property "Reference" "U3" (at 161.925 109.855 0)
      (effects (font (size 1.27 1.27)))
    )
    (property "Value" "7400" (at 161.925 112.395 0)
      (effects (font (size 1.27 1.27)))
    )
    (property "Footprint" "" (at 161.925 111.125 0)
      (effects (font (size 1.27 1.27)) hide)
    )
    (property "Datasheet" "http://www.ti.com/lit/gpn/sn7400" (at 161.925 111.125 0)
      (effects (font (size 1.27 1.27)) hide)
    )
    (pin "1" (uuid 3c1991ec-15bc-4d4d-a977-04c2da11f4b7))
    (pin "2" (uuid e8d9398f-17bc-4a35-b15f-5efb57a924f0))
    (pin "3" (uuid 401f9e6d-2b17-4123-9f96-1ec907a106b1))
    (pin "4" (uuid 5ce33ae8-da19-41fc-9c47-73f038e7683a))
    (pin "5" (uuid e0c47e48-d6b0-4078-a3c9-3466bf6db55f))
    (pin "6" (uuid c961a989-48f2-4040-8f55-b564ddad30d2))
    (pin "10" (uuid 98ec250a-2a09-43e0-8f77-1fc46e128465))
    (pin "8" (uuid 60cbebdb-e27b-4af4-9564-ab28a186e2ed))
    (pin "9" (uuid 9458eda2-f2aa-4c82-b8ba-5064c10d9208))
    (pin "11" (uuid 797e0958-09e1-4eea-a15b-f44c0596999b))
    (pin "12" (uuid 20253c7d-7d43-4241-bfce-b4645843813f))
    (pin "13" (uuid 60d3dffa-c925-4df9-8cbf-7b94ecbb960f))
    (pin "14" (uuid 1277402f-7033-4713-8a7c-e140019b9899))
    (pin "7" (uuid 3b1fce56-9dde-425e-9af5-4e7fbe21a8f7))
    (instances
      (project "lab2"
        (path "/6a79675d-9085-4aea-b8c4-79780d4b41fb"
          (reference "U3") (unit 1)
        )
      )
    )
  )

  (symbol (lib_id "power:GND") (at 259.715 116.205 90) (unit 1)
    (in_bom yes) (on_board yes) (dnp no)
    (uuid 3cccd400-633e-458f-b1b7-ffdb13c21dca)
    (property "Reference" "#PWR06" (at 266.065 116.205 0)
      (effects (font (size 1.27 1.27)) hide)
    )
    (property "Value" "GND" (at 264.795 116.205 0)
      (effects (font (size 1.27 1.27)))
    )
    (property "Footprint" "" (at 259.715 116.205 0)
      (effects (font (size 1.27 1.27)) hide)
    )
    (property "Datasheet" "" (at 259.715 116.205 0)
      (effects (font (size 1.27 1.27)) hide)
    )
    (pin "1" (uuid 1fca5b0a-1223-41c7-8b6e-322ed2bf2328))
    (instances
      (project "lab2"
        (path "/6a79675d-9085-4aea-b8c4-79780d4b41fb"
          (reference "#PWR06") (unit 1)
        )
      )
    )
  )

  (symbol (lib_name "SW_DIP_x01_1") (lib_id "Switch:SW_DIP_x01") (at 108.585 111.125 0) (unit 1)
    (in_bom yes) (on_board yes) (dnp no)
    (uuid 3eabfe59-14c6-48cf-a526-cc1bcaa746b8)
    (property "Reference" "SW3" (at 108.585 106.045 0)
      (effects (font (size 1.27 1.27)))
    )
    (property "Value" "~" (at 103.505 107.315 0)
      (effects (font (size 1.27 1.27)))
    )
    (property "Footprint" "" (at 108.585 111.125 0)
      (effects (font (size 1.27 1.27)) hide)
    )
    (property "Datasheet" "S" (at 108.585 112.395 0)
      (effects (font (size 1.27 1.27)) hide)
    )
    (pin "1" (uuid a39dc896-eb0c-4b02-9cf9-722d2b7a7195))
    (pin "2" (uuid e10b3b19-5824-42a9-b1bd-5a4c45a2b7b4))
    (instances
      (project "lab2"
        (path "/6a79675d-9085-4aea-b8c4-79780d4b41fb"
          (reference "SW3") (unit 1)
        )
      )
    )
  )

  (symbol (lib_id "power:GND") (at 26.67 53.34 270) (unit 1)
    (in_bom yes) (on_board yes) (dnp no) (fields_autoplaced)
    (uuid 5ececce0-fcfd-44bb-8735-45f06ca496a4)
    (property "Reference" "#PWR02" (at 20.32 53.34 0)
      (effects (font (size 1.27 1.27)) hide)
    )
    (property "Value" "GND" (at 22.86 53.34 0)
      (effects (font (size 1.27 1.27)))
    )
    (property "Footprint" "" (at 26.67 53.34 0)
      (effects (font (size 1.27 1.27)) hide)
    )
    (property "Datasheet" "" (at 26.67 53.34 0)
      (effects (font (size 1.27 1.27)) hide)
    )
    (pin "1" (uuid 66bc771a-4f3a-4057-9837-832fd2d0bf97))
    (instances
      (project "lab2"
        (path "/6a79675d-9085-4aea-b8c4-79780d4b41fb"
          (reference "#PWR02") (unit 1)
        )
      )
    )
  )

  (symbol (lib_name "R_1") (lib_id "Device:R") (at 147.32 64.77 90) (unit 1)
    (in_bom yes) (on_board yes) (dnp no)
    (uuid 64276345-d4ee-4080-8ec9-0fee27ebe7b4)
    (property "Reference" "R4" (at 147.32 62.23 0)
      (effects (font (size 1.27 1.27)) (justify left))
    )
    (property "Value" "R" (at 151.13 52.07 0)
      (effects (font (size 1.27 1.27)) (justify left) hide)
    )
    (property "Footprint" "" (at 147.32 66.548 90)
      (effects (font (size 1.27 1.27)) hide)
    )
    (property "Datasheet" "R" (at 147.32 64.77 0)
      (effects (font (size 1.27 1.27)) hide)
    )
    (pin "1" (uuid e924fe2d-a0fa-4991-9d81-701f3e113a8e))
    (pin "2" (uuid ab0d3123-f674-4ce3-a9be-40a600844276))
    (instances
      (project "lab2"
        (path "/6a79675d-9085-4aea-b8c4-79780d4b41fb"
          (reference "R4") (unit 1)
        )
      )
    )
  )

  (symbol (lib_name "R_1") (lib_id "Device:R") (at 35.56 49.53 90) (unit 1)
    (in_bom yes) (on_board yes) (dnp no)
    (uuid 66108b3c-d618-4c09-a2c2-86195b3201a4)
    (property "Reference" "R2" (at 35.56 46.99 0)
      (effects (font (size 1.27 1.27)) (justify left))
    )
    (property "Value" "R" (at 39.37 36.83 0)
      (effects (font (size 1.27 1.27)) (justify left) hide)
    )
    (property "Footprint" "" (at 35.56 51.308 90)
      (effects (font (size 1.27 1.27)) hide)
    )
    (property "Datasheet" "R" (at 35.56 49.53 0)
      (effects (font (size 1.27 1.27)) hide)
    )
    (pin "1" (uuid 437165a8-4e8b-4b7c-8e5b-2b281ba3b063))
    (pin "2" (uuid 14631787-a5ba-405d-b635-c47c75c27cdf))
    (instances
      (project "lab2"
        (path "/6a79675d-9085-4aea-b8c4-79780d4b41fb"
          (reference "R2") (unit 1)
        )
      )
    )
  )

  (symbol (lib_id "74xx:7400") (at 198.755 108.585 0) (unit 1)
    (in_bom yes) (on_board yes) (dnp no)
    (uuid 6ce2823a-85e9-49fe-97f5-93c53c955ac4)
    (property "Reference" "U5" (at 198.755 107.315 0)
      (effects (font (size 1.27 1.27)))
    )
    (property "Value" "7400" (at 198.755 109.855 0)
      (effects (font (size 1.27 1.27)))
    )
    (property "Footprint" "" (at 198.755 108.585 0)
      (effects (font (size 1.27 1.27)) hide)
    )
    (property "Datasheet" "http://www.ti.com/lit/gpn/sn7400" (at 198.755 108.585 0)
      (effects (font (size 1.27 1.27)) hide)
    )
    (pin "1" (uuid 80122a79-4552-434a-9011-0aa686bd10ed))
    (pin "2" (uuid 7603df8f-5f93-4221-9871-c7154db9acb1))
    (pin "3" (uuid bb90ba00-5f0a-4bbb-9c8b-d157455d75ca))
    (pin "4" (uuid 5ce33ae8-da19-41fc-9c47-73f038e7683c))
    (pin "5" (uuid e0c47e48-d6b0-4078-a3c9-3466bf6db561))
    (pin "6" (uuid c961a989-48f2-4040-8f55-b564ddad30d4))
    (pin "10" (uuid 98ec250a-2a09-43e0-8f77-1fc46e128467))
    (pin "8" (uuid 60cbebdb-e27b-4af4-9564-ab28a186e2ef))
    (pin "9" (uuid 9458eda2-f2aa-4c82-b8ba-5064c10d920a))
    (pin "11" (uuid 797e0958-09e1-4eea-a15b-f44c0596999d))
    (pin "12" (uuid 20253c7d-7d43-4241-bfce-b46458438141))
    (pin "13" (uuid 60d3dffa-c925-4df9-8cbf-7b94ecbb9611))
    (pin "14" (uuid 1277402f-7033-4713-8a7c-e140019b989b))
    (pin "7" (uuid 3b1fce56-9dde-425e-9af5-4e7fbe21a8f9))
    (instances
      (project "lab2"
        (path "/6a79675d-9085-4aea-b8c4-79780d4b41fb"
          (reference "U5") (unit 1)
        )
      )
    )
  )

  (symbol (lib_id "74xx:7400") (at 198.755 128.905 0) (unit 2)
    (in_bom yes) (on_board yes) (dnp no)
    (uuid 78e45d7d-a5a1-4e4e-9ef7-5c1e883b29f6)
    (property "Reference" "U5" (at 198.755 127.635 0)
      (effects (font (size 1.27 1.27)))
    )
    (property "Value" "7400" (at 198.755 130.175 0)
      (effects (font (size 1.27 1.27)))
    )
    (property "Footprint" "" (at 198.755 128.905 0)
      (effects (font (size 1.27 1.27)) hide)
    )
    (property "Datasheet" "http://www.ti.com/lit/gpn/sn7400" (at 198.755 128.905 0)
      (effects (font (size 1.27 1.27)) hide)
    )
    (pin "1" (uuid 2510bab1-446b-4518-ae58-955cdba34021))
    (pin "2" (uuid 48fbf378-76e3-48cd-8bc3-1bcb4dd0bb5d))
    (pin "3" (uuid db2dec6a-2b6c-4478-b6cb-e48c0dce3657))
    (pin "4" (uuid d6adf12a-c839-461c-86c2-bb170ef75e31))
    (pin "5" (uuid 13bdbb8a-1062-4cb1-be50-610924dfd814))
    (pin "6" (uuid 7b04de13-ce5e-4a47-a172-9858d5f3d3cb))
    (pin "10" (uuid 3b43f6ef-790e-4f7c-98d5-54305b0ebcd8))
    (pin "8" (uuid d9fc6d90-c66b-4e76-af54-ef0ff0556553))
    (pin "9" (uuid c5965aa3-cbc2-4a68-87b5-ab101dd12547))
    (pin "11" (uuid 190016c8-ed16-4b88-b143-4daa50e038f3))
    (pin "12" (uuid ff0fbec9-63e7-4a11-a4ee-5bc52539815a))
    (pin "13" (uuid 85d82b92-09f7-4e37-a881-98e83c1232ab))
    (pin "14" (uuid 4a19847b-c58c-47e1-9e6a-53b4bd96fac7))
    (pin "7" (uuid c59b4cea-7d87-4fbb-95ee-df5190b349d4))
    (instances
      (project "lab2"
        (path "/6a79675d-9085-4aea-b8c4-79780d4b41fb"
          (reference "U5") (unit 2)
        )
      )
    )
  )

  (symbol (lib_id "74xx:7400") (at 163.195 128.905 0) (unit 1)
    (in_bom yes) (on_board yes) (dnp no)
    (uuid 892d2be5-1464-4af9-b101-f6bc49315e03)
    (property "Reference" "U4" (at 163.195 127.635 0)
      (effects (font (size 1.27 1.27)))
    )
    (property "Value" "7400" (at 163.195 130.175 0)
      (effects (font (size 1.27 1.27)))
    )
    (property "Footprint" "" (at 163.195 128.905 0)
      (effects (font (size 1.27 1.27)) hide)
    )
    (property "Datasheet" "http://www.ti.com/lit/gpn/sn7400" (at 163.195 128.905 0)
      (effects (font (size 1.27 1.27)) hide)
    )
    (pin "1" (uuid 4f3cfbba-0c59-49de-bb0c-991acafe11a8))
    (pin "2" (uuid 5d8d879b-ad16-45ec-b1eb-fb0bc8ff0b5a))
    (pin "3" (uuid 81d95e23-0854-403c-9165-6fb802875e5b))
    (pin "4" (uuid 5ce33ae8-da19-41fc-9c47-73f038e7683b))
    (pin "5" (uuid e0c47e48-d6b0-4078-a3c9-3466bf6db560))
    (pin "6" (uuid c961a989-48f2-4040-8f55-b564ddad30d3))
    (pin "10" (uuid 98ec250a-2a09-43e0-8f77-1fc46e128466))
    (pin "8" (uuid 60cbebdb-e27b-4af4-9564-ab28a186e2ee))
    (pin "9" (uuid 9458eda2-f2aa-4c82-b8ba-5064c10d9209))
    (pin "11" (uuid 797e0958-09e1-4eea-a15b-f44c0596999c))
    (pin "12" (uuid 20253c7d-7d43-4241-bfce-b46458438140))
    (pin "13" (uuid 60d3dffa-c925-4df9-8cbf-7b94ecbb9610))
    (pin "14" (uuid 1277402f-7033-4713-8a7c-e140019b989a))
    (pin "7" (uuid 3b1fce56-9dde-425e-9af5-4e7fbe21a8f8))
    (instances
      (project "lab2"
        (path "/6a79675d-9085-4aea-b8c4-79780d4b41fb"
          (reference "U4") (unit 1)
        )
      )
    )
  )

  (symbol (lib_name "R_1") (lib_id "Device:R") (at 147.32 44.45 90) (unit 1)
    (in_bom yes) (on_board yes) (dnp no)
    (uuid 9cbbdf31-7ee7-44fd-8543-8297fd3ff4d2)
    (property "Reference" "R3" (at 147.32 41.91 0)
      (effects (font (size 1.27 1.27)) (justify left))
    )
    (property "Value" "R" (at 151.13 31.75 0)
      (effects (font (size 1.27 1.27)) (justify left) hide)
    )
    (property "Footprint" "" (at 147.32 46.228 90)
      (effects (font (size 1.27 1.27)) hide)
    )
    (property "Datasheet" "R" (at 147.32 44.45 0)
      (effects (font (size 1.27 1.27)) hide)
    )
    (pin "1" (uuid 4000af4f-f928-42a9-a06a-78f855e2cab5))
    (pin "2" (uuid 42588532-f626-4044-831a-4ef704b1e329))
    (instances
      (project "lab2"
        (path "/6a79675d-9085-4aea-b8c4-79780d4b41fb"
          (reference "R3") (unit 1)
        )
      )
    )
  )

  (symbol (lib_id "74xx:7400") (at 102.87 64.77 0) (unit 2)
    (in_bom yes) (on_board yes) (dnp no)
    (uuid a0317fe9-6d52-4158-93da-b1f0052142d4)
    (property "Reference" "U1" (at 102.87 63.5 0)
      (effects (font (size 1.27 1.27)))
    )
    (property "Value" "7400" (at 102.87 66.04 0)
      (effects (font (size 1.27 1.27)))
    )
    (property "Footprint" "" (at 102.87 64.77 0)
      (effects (font (size 1.27 1.27)) hide)
    )
    (property "Datasheet" "http://www.ti.com/lit/gpn/sn7400" (at 102.87 64.77 0)
      (effects (font (size 1.27 1.27)) hide)
    )
    (pin "1" (uuid 2510bab1-446b-4518-ae58-955cdba34021))
    (pin "2" (uuid 48fbf378-76e3-48cd-8bc3-1bcb4dd0bb5d))
    (pin "3" (uuid db2dec6a-2b6c-4478-b6cb-e48c0dce3657))
    (pin "4" (uuid e9e8cc21-e7aa-40e0-9605-d61901c66377))
    (pin "5" (uuid 72c62240-be42-4501-9544-c28224236bc3))
    (pin "6" (uuid b17eb189-5170-4c6b-87c2-1ce264cdd67f))
    (pin "10" (uuid 3b43f6ef-790e-4f7c-98d5-54305b0ebcd8))
    (pin "8" (uuid d9fc6d90-c66b-4e76-af54-ef0ff0556553))
    (pin "9" (uuid c5965aa3-cbc2-4a68-87b5-ab101dd12547))
    (pin "11" (uuid 190016c8-ed16-4b88-b143-4daa50e038f3))
    (pin "12" (uuid ff0fbec9-63e7-4a11-a4ee-5bc52539815a))
    (pin "13" (uuid 85d82b92-09f7-4e37-a881-98e83c1232ab))
    (pin "14" (uuid 4a19847b-c58c-47e1-9e6a-53b4bd96fac7))
    (pin "7" (uuid c59b4cea-7d87-4fbb-95ee-df5190b349d4))
    (instances
      (project "lab2"
        (path "/6a79675d-9085-4aea-b8c4-79780d4b41fb"
          (reference "U1") (unit 2)
        )
      )
    )
  )

  (symbol (lib_name "R_1") (lib_id "Device:R") (at 243.205 128.905 90) (unit 1)
    (in_bom yes) (on_board yes) (dnp no)
    (uuid a112e5f9-49dd-4363-bb38-15196eced181)
    (property "Reference" "R8" (at 243.205 126.365 90)
      (effects (font (size 1.27 1.27)) (justify left))
    )
    (property "Value" "R" (at 247.015 116.205 0)
      (effects (font (size 1.27 1.27)) (justify left) hide)
    )
    (property "Footprint" "" (at 243.205 130.683 90)
      (effects (font (size 1.27 1.27)) hide)
    )
    (property "Datasheet" "R" (at 243.205 128.905 0)
      (effects (font (size 1.27 1.27)) hide)
    )
    (pin "1" (uuid a678838a-5d2e-4c76-b589-32527c119590))
    (pin "2" (uuid 8d402cc8-d06f-410e-9010-2e2e22b6c46e))
    (instances
      (project "lab2"
        (path "/6a79675d-9085-4aea-b8c4-79780d4b41fb"
          (reference "R8") (unit 1)
        )
      )
    )
  )

  (symbol (lib_name "LED_1") (lib_id "Device:LED") (at 225.425 108.585 0) (mirror y) (unit 1)
    (in_bom yes) (on_board yes) (dnp no)
    (uuid a3d675c8-5cb2-4b52-bca4-366cac4b86e7)
    (property "Reference" "D3" (at 223.8375 103.505 0)
      (effects (font (size 1.27 1.27)))
    )
    (property "Value" "LED" (at 223.8375 106.045 0)
      (effects (font (size 1.27 1.27)))
    )
    (property "Footprint" "" (at 225.425 108.585 0)
      (effects (font (size 1.27 1.27)) hide)
    )
    (property "Datasheet" "~" (at 225.425 108.585 0)
      (effects (font (size 1.27 1.27)) hide)
    )
    (pin "1" (uuid 94588bdb-4fad-47e2-a5b4-c8dd9d463f01))
    (pin "2" (uuid bce44dd1-b57c-4856-acfa-81e9bddf6dfc))
    (instances
      (project "lab2"
        (path "/6a79675d-9085-4aea-b8c4-79780d4b41fb"
          (reference "D3") (unit 1)
        )
      )
    )
  )

  (symbol (lib_id "power:GND") (at 65.405 120.015 270) (unit 1)
    (in_bom yes) (on_board yes) (dnp no) (fields_autoplaced)
    (uuid b151db69-388a-4706-8596-b2dbfed51753)
    (property "Reference" "#PWR04" (at 59.055 120.015 0)
      (effects (font (size 1.27 1.27)) hide)
    )
    (property "Value" "GND" (at 61.595 120.015 0)
      (effects (font (size 1.27 1.27)))
    )
    (property "Footprint" "" (at 65.405 120.015 0)
      (effects (font (size 1.27 1.27)) hide)
    )
    (property "Datasheet" "" (at 65.405 120.015 0)
      (effects (font (size 1.27 1.27)) hide)
    )
    (pin "1" (uuid bb6f56f1-5b12-47fe-9e33-892ba5f1957f))
    (instances
      (project "lab2"
        (path "/6a79675d-9085-4aea-b8c4-79780d4b41fb"
          (reference "#PWR04") (unit 1)
        )
      )
    )
  )

  (symbol (lib_id "power:VCC") (at 90.805 108.585 0) (unit 1)
    (in_bom yes) (on_board yes) (dnp no) (fields_autoplaced)
    (uuid b6eb3d09-0cab-4ac6-93a6-68191955635d)
    (property "Reference" "#PWR05" (at 90.805 112.395 0)
      (effects (font (size 1.27 1.27)) hide)
    )
    (property "Value" "VCC" (at 90.805 104.775 0)
      (effects (font (size 1.27 1.27)))
    )
    (property "Footprint" "" (at 90.805 108.585 0)
      (effects (font (size 1.27 1.27)) hide)
    )
    (property "Datasheet" "" (at 90.805 108.585 0)
      (effects (font (size 1.27 1.27)) hide)
    )
    (pin "1" (uuid d7ea8cda-e0a0-488c-a122-95a529711cf3))
    (instances
      (project "lab2"
        (path "/6a79675d-9085-4aea-b8c4-79780d4b41fb"
          (reference "#PWR05") (unit 1)
        )
      )
    )
  )

  (symbol (lib_id "Device:LED") (at 129.54 44.45 0) (mirror y) (unit 1)
    (in_bom yes) (on_board yes) (dnp no)
    (uuid c3ec97bf-6a39-4d76-9b2d-cb5f0a277a09)
    (property "Reference" "D1" (at 131.1275 39.37 0)
      (effects (font (size 1.27 1.27)))
    )
    (property "Value" "LED" (at 131.1275 41.91 0)
      (effects (font (size 1.27 1.27)))
    )
    (property "Footprint" "" (at 129.54 44.45 0)
      (effects (font (size 1.27 1.27)) hide)
    )
    (property "Datasheet" "~" (at 129.54 44.45 0)
      (effects (font (size 1.27 1.27)) hide)
    )
    (pin "1" (uuid 16bb1c68-dadc-4905-856e-435d2b8b6b71))
    (pin "2" (uuid 87db9076-e985-4d6c-ba9e-75261a5b17bf))
    (instances
      (project "lab2"
        (path "/6a79675d-9085-4aea-b8c4-79780d4b41fb"
          (reference "D1") (unit 1)
        )
      )
    )
  )

  (symbol (lib_name "SW_DIP_x01_1") (lib_id "Switch:SW_DIP_x01") (at 69.85 44.45 0) (unit 1)
    (in_bom yes) (on_board yes) (dnp no)
    (uuid c622802f-4e02-4e1e-af83-733ce60998fa)
    (property "Reference" "SW1" (at 69.85 39.37 0)
      (effects (font (size 1.27 1.27)))
    )
    (property "Value" "~" (at 64.77 40.64 0)
      (effects (font (size 1.27 1.27)))
    )
    (property "Footprint" "" (at 69.85 44.45 0)
      (effects (font (size 1.27 1.27)) hide)
    )
    (property "Datasheet" "S" (at 69.85 45.72 0)
      (effects (font (size 1.27 1.27)) hide)
    )
    (pin "1" (uuid 79a1f8f2-ddf6-4d00-8538-7fad26c5cc6b))
    (pin "2" (uuid 0fb65a22-4120-4d9b-82ae-645d6e7bf739))
    (instances
      (project "lab2"
        (path "/6a79675d-9085-4aea-b8c4-79780d4b41fb"
          (reference "SW1") (unit 1)
        )
      )
    )
  )

  (symbol (lib_id "74xx:7400") (at 102.87 44.45 0) (unit 1)
    (in_bom yes) (on_board yes) (dnp no)
    (uuid caf4964f-bda6-4279-86fb-5c3e822514e8)
    (property "Reference" "U1" (at 102.87 43.18 0)
      (effects (font (size 1.27 1.27)))
    )
    (property "Value" "7400" (at 102.87 45.72 0)
      (effects (font (size 1.27 1.27)))
    )
    (property "Footprint" "" (at 102.87 44.45 0)
      (effects (font (size 1.27 1.27)) hide)
    )
    (property "Datasheet" "http://www.ti.com/lit/gpn/sn7400" (at 102.87 44.45 0)
      (effects (font (size 1.27 1.27)) hide)
    )
    (pin "1" (uuid 7245668d-a6b1-4af1-9c02-fbaa55059827))
    (pin "2" (uuid 497b008e-8a91-4ef6-bdf2-982ab1c0689d))
    (pin "3" (uuid 9232fc9b-8fcc-4166-8d32-73f7a06d5ade))
    (pin "4" (uuid 5ce33ae8-da19-41fc-9c47-73f038e7683a))
    (pin "5" (uuid e0c47e48-d6b0-4078-a3c9-3466bf6db55f))
    (pin "6" (uuid c961a989-48f2-4040-8f55-b564ddad30d2))
    (pin "10" (uuid 98ec250a-2a09-43e0-8f77-1fc46e128465))
    (pin "8" (uuid 60cbebdb-e27b-4af4-9564-ab28a186e2ed))
    (pin "9" (uuid 9458eda2-f2aa-4c82-b8ba-5064c10d9208))
    (pin "11" (uuid 797e0958-09e1-4eea-a15b-f44c0596999b))
    (pin "12" (uuid 20253c7d-7d43-4241-bfce-b4645843813f))
    (pin "13" (uuid 60d3dffa-c925-4df9-8cbf-7b94ecbb960f))
    (pin "14" (uuid 1277402f-7033-4713-8a7c-e140019b9899))
    (pin "7" (uuid 3b1fce56-9dde-425e-9af5-4e7fbe21a8f7))
    (instances
      (project "lab2"
        (path "/6a79675d-9085-4aea-b8c4-79780d4b41fb"
          (reference "U1") (unit 1)
        )
      )
    )
  )

  (symbol (lib_name "SW_DIP_x01_1") (lib_id "Switch:SW_DIP_x01") (at 69.85 66.04 0) (unit 1)
    (in_bom yes) (on_board yes) (dnp no)
    (uuid e42144cf-c95f-4356-83bb-a6e159e481c4)
    (property "Reference" "SW2" (at 69.85 60.96 0)
      (effects (font (size 1.27 1.27)))
    )
    (property "Value" "~" (at 64.77 62.23 0)
      (effects (font (size 1.27 1.27)))
    )
    (property "Footprint" "" (at 69.85 66.04 0)
      (effects (font (size 1.27 1.27)) hide)
    )
    (property "Datasheet" "S" (at 69.85 67.31 0)
      (effects (font (size 1.27 1.27)) hide)
    )
    (pin "1" (uuid 8eafdf95-f649-49a1-b81b-787858d74410))
    (pin "2" (uuid c322ad49-ac07-4d85-bd27-318f149d1954))
    (instances
      (project "lab2"
        (path "/6a79675d-9085-4aea-b8c4-79780d4b41fb"
          (reference "SW2") (unit 1)
        )
      )
    )
  )

  (symbol (lib_id "power:GND") (at 163.83 52.07 90) (unit 1)
    (in_bom yes) (on_board yes) (dnp no)
    (uuid f09baf3d-5f19-4268-9d1d-c5e64a8c1836)
    (property "Reference" "#PWR03" (at 170.18 52.07 0)
      (effects (font (size 1.27 1.27)) hide)
    )
    (property "Value" "GND" (at 168.91 52.07 0)
      (effects (font (size 1.27 1.27)))
    )
    (property "Footprint" "" (at 163.83 52.07 0)
      (effects (font (size 1.27 1.27)) hide)
    )
    (property "Datasheet" "" (at 163.83 52.07 0)
      (effects (font (size 1.27 1.27)) hide)
    )
    (pin "1" (uuid 4b22d133-5b93-4b21-9e1c-f4cf5d38fae9))
    (instances
      (project "lab2"
        (path "/6a79675d-9085-4aea-b8c4-79780d4b41fb"
          (reference "#PWR03") (unit 1)
        )
      )
    )
  )

  (sheet_instances
    (path "/" (page "1"))
  )
)
